/* XPM */
static char *hidetoolbar[] = {
/* width height num_colors chars_per_pixel */
"    32    32      250            2",
/* colors */
".. c #0c0204",
".# c #7c8664",
".a c #394219",
".b c #784618",
".c c #471d09",
".d c #bcc29c",
".e c #6c6430",
".f c #0c2224",
".g c #5c441e",
".h c #b48254",
".i c #2f2406",
".j c #786218",
".k c #2f3313",
".l c #9ca078",
".m c #662d20",
".n c #9c6634",
".o c #99835e",
".p c #4c310c",
".q c #4c5430",
".r c #76644f",
".s c #2c352f",
".t c #ece2a4",
".u c #46432a",
".v c #544440",
".w c #472e2f",
".x c #240f04",
".y c #a0936f",
".z c #b7a571",
".A c #67441c",
".B c #2c222c",
".C c #7c724f",
".D c #64724c",
".E c #333c31",
".F c #443b35",
".G c #785220",
".H c #d4a268",
".I c #4c6254",
".J c #ecf6cc",
".K c #111407",
".L c #33433c",
".M c #e7c389",
".N c #575551",
".O c #aa8858",
".P c #322d16",
".Q c #8e6436",
".R c #323c1f",
".S c #173527",
".T c #8f7450",
".U c #acb19f",
".V c #484544",
".W c #745440",
".X c #9c9280",
".Y c #6a4b1e",
".Z c #374c3a",
".0 c #9ea08c",
".1 c #281906",
".2 c #3c3d2f",
".3 c #66645a",
".4 c #8c966c",
".5 c #503a10",
".6 c #1f2508",
".7 c #c4b27c",
".8 c #8e5d26",
".9 c #798476",
"#. c #b49450",
"## c #3c3511",
"#a c #988270",
"#b c #593c38",
"#c c #391909",
"#d c #242420",
"#e c #46280a",
"#f c #5a4b20",
"#g c #643a08",
"#h c #77756f",
"#i c #0e1b0a",
"#j c #e4d294",
"#k c #3c2514",
"#l c #78643e",
"#m c #6a5429",
"#n c #3c3535",
"#o c #484a38",
"#p c #543431",
"#q c #f4f2dc",
"#r c #a2a794",
"#s c #878471",
"#t c #cc9654",
"#u c #9e7940",
"#v c #583414",
"#w c #906e4c",
"#x c #644440",
"#y c #745b2f",
"#z c #666c60",
"#A c #160504",
"#B c #49544f",
"#C c #c4a478",
"#D c #664530",
"#E c #302d27",
"#F c #313c3e",
"#G c #473e49",
"#H c #d9b577",
"#I c #3c453b",
"#J c #695354",
"#K c #e4d2c4",
"#L c #84643d",
"#M c #695c36",
"#N c #d4deac",
"#O c #2f2417",
"#P c #483120",
"#Q c #3c2b0b",
"#R c #936f40",
"#S c #291e07",
"#T c #b6946a",
"#U c #562824",
"#V c #303420",
"#W c #7a6b56",
"#X c #483634",
"#Y c #fbfbc3",
"#Z c #a88464",
"#0 c #4b4c49",
"#1 c #694c2f",
"#2 c #3b4b49",
"#3 c #616b44",
"#4 c #742d1f",
"#5 c #343431",
"#6 c #797d5c",
"#7 c #4c3d34",
"#8 c #dcc294",
"#9 c #8c5e5c",
"a. c #7c3927",
"a# c #f4d8b4",
"aa c #81453c",
"ab c #c0b29c",
"ac c #d7b98f",
"ad c #e6e3cc",
"ae c #f4d29c",
"af c #a9977c",
"ag c #b07848",
"ah c #6c7e64",
"ai c #8c7a74",
"aj c #d4c2ac",
"ak c #d4aa6c",
"al c #1c3e2c",
"am c #b48e64",
"an c #5a6b5e",
"ao c #787e70",
"ap c #fcecaf",
"aq c #c7ad77",
"ar c #c4bea4",
"as c #683828",
"at c #745e3c",
"au c #6c7567",
"av c #845214",
"aw c #846e51",
"ax c #6c4b3f",
"ay c #645e44",
"az c #ecdeb4",
"aA c #eceebc",
"aB c #b7a989",
"aC c #e4ba84",
"aD c #a16f3f",
"aE c #5a4c42",
"aF c #595b53",
"aG c #917d5c",
"aH c #202c08",
"aI c #998c71",
"aJ c #202b23",
"aK c #ecdea1",
"aL c #fcfdd9",
"aM c #b79c6f",
"aN c #a48b6c",
"aO c #ececc4",
"aP c #dcceb4",
"aQ c #8c8258",
"aR c #ac9f74",
"aS c #847654",
"aT c #fcf4bf",
"aU c #243524",
"aV c #aca18c",
"aW c #5c3a14",
"aX c #1c1b0a",
"aY c #aca68e",
"aZ c #5c5e34",
"a0 c #170c05",
"a1 c #f8dc98",
"a2 c #84622c",
"a3 c #340e04",
"a4 c #cc9e70",
"a5 c #d4d8c8",
"a6 c #0b0d04",
"a7 c #696549",
"a8 c #607368",
"a9 c #3c3d1c",
"b. c #482820",
"b# c #695636",
"ba c #845c2c",
"bb c #3c2c2f",
"bc c #ccb694",
"bd c #e4ae7c",
"be c #847d77",
"bf c #c4ae8c",
"bg c #a49a68",
"bh c #8f6a3f",
"bi c #999a81",
"bj c #341e0d",
"bk c #a07e50",
"bl c #c48e54",
"bm c #84664c",
"bn c #3c2428",
"bo c #1c1404",
"bp c #8c9a8c",
"bq c #6c6e44",
"br c #fceac4",
"bs c #846a6c",
"bt c #ac9a6c",
"bu c #744e1c",
"bv c #44220c",
"bw c #6c322c",
"bx c #948a64",
"by c #49360f",
"bz c #bcaa74",
"bA c #5c625c",
"bB c #e4ca7c",
"bC c #7c8a84",
"bD c #7c6a44",
"bE c #485a4c",
"bF c #d4be94",
"bG c #ac7e54",
"bH c #745e5c",
"bI c #3a432b",
"bJ c #56442e",
"bK c #454439",
"bL c #49313f",
"bM c #79745e",
"bN c #775531",
"bO c #2c1a1c",
"bP c #523b20",
"bQ c #594c31",
"bR c #6c6c70",
"bS c #888c80",
"bT c #644c50",
"bU c #47361f",
"bV c #c4ba8c",
"bW c #846a34",
"bX c #74322c",
"bY c #dccaa0",
"bZ c #fcdeb4",
"b0 c #4c523f",
"b1 c #9c9694",
"b2 c #3c3d40",
"b3 c #3c351f",
/* pixels */
"af#X.2.2#0.saJb0#o.R.k.Ra9.k###o.u#V#V.E.P.sbI.R.E.Z.R#oa8.F#O#p",
"#Qbo#5#BaJ.PbI.q.kaH.k#i#Q.i#A##.P.Pa6.P.E.KbIbI.P.q.a.#bS#Fa0#b",
"bJ.F#d.E#E.s.u.ia0##.e#MbtbtbtaRaG#s.X#r.Ua5.0a5ad.daObian.L#E#J",
"b3#0#IaJ#0.FaE#Q#e#l#Zbx.zaMbD.r#KadaVbeb1be#s.0#qaLaz.0a8#F#d#7",
"#O.V#B.saFaX.1#c.g#TacbZbraT.o#Majab.N.V#haF.V#zadaLaL.la8.Lb2.F",
"#X#G#F.L#oaX##.eaRazaK#Yapapbz.obxbM#7#0#5aE.6.kbiaO#Y#3#z#2aF#P",
"#b#n#F.E.Z.k#f.ebg#j.t#Y#Yap.zbtaRbM.P.R.2.s.Z.P#3aLaA.l.9#F#Gbn",
".w#5#0.La6##.e#..Map#Y#YaTa1btaQ.lay#I.3#o#I.kaU.k.J#N.4au#5#X#p",
"bL#5#FaFa6###laMaeapaTapapaq.7btbiay#zan.L#z#IbI.6#YaA#6#h#Ebb#x",
"bL#G#G#IaXbPaW.oaMaCa1bBbdakbW.TbxbC.9#F.L#FaH.k#Saz#YaBbI#F#5#b",
"bL#G#naXbo.PbxaG#TbW.j.j.8#g.AbN#r.0.Z.EaUbI.2bQ.1azaTaw.R.s.B#J",
"bn.B#I#VaX.k.xbj.i.5#f#m.Abu.Y#mbFara7#o.kaVbYbY#mbFbYbxau.s#Ibs",
"bT.V#5#ia6b3.1bj#Q.x##.1#e#m#laSaBayb#.oaL#8#C.o.1.obV.y.EaJ.NbH",
"bbb2aJbI.UbM#V#A...1#Abo#Q.1.Pbyabbra#aqa2bu.Obh#Law.C#raobC#B#X",
"bT.3aJ#i.lao.K#S#7#KaPaV.1bobUa7aG#m.Y.c.ca3.Q.Y.g#Qa9aQ.9an#d.w",
".w#0bIal.D#6#oa0a0bj#Wa0.1bQ#M#W#1.p.T.Q#c.G#u#y.o#Q#O.0.9#2.3ai",
"#k#nbIaH#3.abQ.P#Aa3.v#1aGataIaNbx.C.i.p.oaMat#maI.6.PbpbpaJ#Bbb",
"#b.F.RaH.abqa7#QbP#1#l#C#T.O.Obfafbob3.Pboaybx#s#W.K#0.U.9.sb2bb",
"#b#7#VaH.aaZaIb#.T.T.O.M.HaC.Obcbx#s#dbI.K#EbR.u#dbo#d#rbp.L#Ibb",
"#b.V#IaH.6a9bg.Y.T#CaC.Ma1avbha#bM#z#B#2.L.f#I#i#S#o#Ebibp.L#5bO",
"#p#7bK.RaH.6#M#kbNam#H.H#t.n.bataVbR#2.f#F#F.s#5#db3.FaIa8#B#z.v",
".w#E.EaU.ZaX.iby.A.A#Ragavba#Raf.XaF#2#F#2.sa6.F.vbPbP.3#z#BbAaE",
"bL#5.L.LbI.k.1#P#Dbv#g.G.G.8atbJ#sbS#IaJ#5.B.FaEbJbPbP#aaF#B.s.F",
".v#F.Z.LalbI#E.x#1.A.b.Aa2atbJ#P#6#5bob0#XbobPbP#D#1#vaw#oan#IaE",
"#7.L#2.San.Z#5#Absbm.Ga2.oac.o#sbM#5bK.2.ibj.g.A.YaW.A#WaFau#E.v",
".VaJal.Sal.ZaUa6#lbm#u#.#u#ebQ##an#B#i#I.1.i.A#m.A.Y#laGbebR#n#p",
"#XaX.L.IbE.S.E.2#Oaw#H#..8.b.5#Sa7.E#0a9.1by.Aba#Ra2#yaSaobRb2bn",
"bLbbb2bA#F#5b2#X#A#b#Za4bl.h#R#1.r#W#Oa0a3.Q.n.b.8aDbh.oana8#0bQ",
"#p#JbL#0#5aF#n#5bO#c.p#Tbd.ha4#ZaIbO#k.WaDbGagaDaDbaa2aRah.Zal#V",
"bb#0.saU.Z.ZaU.s.EaJ.6#f#y#Rbf#a.raV.Caf.ybkbk#.aMaN.yaY.9#V.2#S",
"#P.1#o#obI#I#o#F#0.2#Vbybv.p#eb##a.r#a#1.W.Q#wbh#waNaVaIbJ#k#P#U",
"#U#cax.WbvbJ#x#PbJ#Ub.aW.ma..mbw#UaaaabX#4#4#4a.as.c#U#9.maa.mbX"
};
